<?xml version="1.0" encoding="UTF-8"?>
<svg width="16px" height="20px" viewBox="0 0 16 20" version="1.1" xmlns="http://www.w3.org/2000/svg" xmlns:xlink="http://www.w3.org/1999/xlink">
    <!-- Generator: sketchtool 47.1 (45422) - http://www.bohemiancoding.com/sketch -->
    <title>3CAE2A5D-37AE-44C6-88B9-E1D3DB2D5D10</title>
    <desc>Created with sketchtool.</desc>
    <defs></defs>
    <g id="Page-1" stroke="none" stroke-width="1" fill="none" fill-rule="evenodd">
        <g id="regisrtar-admin-scrn-5" transform="translate(-449.000000, -447.000000)" fill="#FF0200">
            <g id="imput" transform="translate(161.000000, 432.000000)">
                <polygon id="btn_geo" points="288 15 296 15 304 25 296 35 288 35 296 25"></polygon>
            </g>
        </g>
    </g>
</svg>