<svg xmlns="http://www.w3.org/2000/svg" width="18" height="17" viewBox="0 0 18 17">
    <g fill="#C2C2C2" fill-rule="nonzero">
        <path d="M2.934 2.967c-.748.089-1.233.155-1.233.155C.75 3.406 0 3.868 0 4.789V14.457c0 .92.74 1.375 1.7 1.667 0 0 .488.062 1.234.145V2.967zM17.986 9.895V4.79c0-.92-.769-1.394-1.7-1.667 0 0-.546-.075-1.374-.172v13.332c.83-.089 1.373-.158 1.373-.158.992-.315 1.701-.746 1.701-1.667V9.895zM13.93 2.84c-.37-.039-.763-.078-1.171-.116l-.087-1.002c-.014-.79-.674-1.429-1.483-1.429H6.797c-.81 0-1.469.639-1.483 1.429l-.09 1.002c-.459.043-.9.087-1.308.131v13.519c1.567.16 3.637.334 5.076.318 1.527-.008 3.449-.163 4.937-.308V2.84zm-4.938-.329c-.807 0-1.747.05-2.677.12l.074-.838.002-.046c0-.22.182-.397.406-.397h4.392c.224 0 .406.178.406.397l.076.884c-.93-.07-1.87-.12-2.679-.12z"/>
    </g>
</svg>
