<svg xmlns="http://www.w3.org/2000/svg" width="18" height="18" viewBox="0 0 18 18">
    <g fill="#C2C2C2" fill-rule="nonzero">
        <path d="M13.748.666c0-.368-.33-.666-.737-.666H4.975C4.57 0 4.24.298 4.24.666v.923h9.509V.666zM17.228 16.66H15.63V3.078c0-.368-.33-.666-.737-.666H3.094c-.406 0-.736.298-.736.666V16.66h-1.6c-.406 0-.736.299-.736.667v.66h6.18v-2.722c0-.16.143-.288.318-.288H8.16c.175 0 .318.129.318.288v2.723H9.51v-2.723c0-.16.142-.288.318-.288h1.638c.176 0 .318.129.318.288v2.723h6.18v-.661c0-.368-.33-.667-.736-.667zM6.161 14.204c0 .159-.142.287-.318.287H4.205c-.176 0-.318-.128-.318-.287v-1.482c0-.16.142-.288.318-.288h1.638c.176 0 .318.129.318.288v1.482zm0-2.992c0 .159-.142.287-.318.287H4.205c-.176 0-.318-.128-.318-.287V9.73c0-.159.142-.287.318-.287h1.638c.176 0 .318.128.318.287v1.482zm0-2.992c0 .159-.142.288-.318.288H4.205c-.176 0-.318-.129-.318-.288V6.738c0-.159.142-.287.318-.287h1.638c.176 0 .318.128.318.287V8.22zm0-2.991c0 .158-.142.287-.318.287H4.205c-.176 0-.318-.129-.318-.287V3.746c0-.158.142-.287.318-.287h1.638c.176 0 .318.129.318.287V5.23zm3.97 8.975c0 .159-.143.287-.319.287H8.174c-.176 0-.318-.128-.318-.287v-1.482c0-.16.142-.288.318-.288h1.638c.176 0 .318.129.318.288v1.482zm0-2.992c0 .159-.143.287-.319.287H8.174c-.176 0-.318-.128-.318-.287V9.73c0-.159.142-.287.318-.287h1.638c.176 0 .318.128.318.287v1.482zm0-2.992c0 .159-.143.288-.319.288H8.174c-.176 0-.318-.129-.318-.288V6.738c0-.159.142-.287.318-.287h1.638c.176 0 .318.128.318.287V8.22zm0-2.991c0 .158-.143.287-.319.287H8.174c-.176 0-.318-.129-.318-.287V3.746c0-.158.142-.287.318-.287h1.638c.176 0 .318.129.318.287V5.23zm3.968 8.975c0 .159-.142.287-.318.287h-1.638c-.176 0-.318-.128-.318-.287v-1.482c0-.16.142-.288.318-.288h1.638c.176 0 .318.129.318.288v1.482zm0-2.992c0 .159-.142.287-.318.287h-1.638c-.176 0-.318-.128-.318-.287V9.73c0-.159.142-.287.318-.287h1.638c.176 0 .318.128.318.287v1.482zm0-2.992c0 .159-.142.288-.318.288h-1.638c-.176 0-.318-.129-.318-.288V6.738c0-.159.142-.287.318-.287h1.638c.176 0 .318.128.318.287V8.22zm0-2.991c0 .158-.142.287-.318.287h-1.638c-.176 0-.318-.129-.318-.287V3.746c0-.158.142-.287.318-.287h1.638c.176 0 .318.129.318.287V5.23z"/>
    </g>
</svg>
