<svg xmlns="http://www.w3.org/2000/svg" width="22" height="22" viewBox="0 0 22 22">
    <path fill="#86C93C" fill-rule="evenodd" stroke="#86C93C" stroke-width="1.5" d="M11.434 10.87h9.138v.761h-9.138v9.138h-.761v-9.138H1.535v-.761h9.138V1.732h.761v9.138z"/>
</svg>
