<svg xmlns="http://www.w3.org/2000/svg" width="36" height="24" viewBox="0 0 36 24">
    <path fill="#3D3D3D" fill-rule="nonzero" d="M21.077 10.035c.144.094.213.243.217.44 0 .302-.111.532-.333.697-.223.16-.533.243-.933.243h-.184c-.16 0-.263-.128-.227-.282l.224-.96a.378.378 0 0 1 .354-.28l.24-.002c.284.001.496.049.642.144zM11.056 12.29c-.19.027-.354.065-.487.11l-.313.213a.557.557 0 0 0-.108.36l.142.277c.097.054.24.081.422.081.12 0 .25-.03.386-.085l.29-.15.116-.152c.045-.178.14-.574.15-.624l-.051-.09c-.044 0-.378.039-.547.06zm13.43.003a2.673 2.673 0 0 0-.488.11.75.75 0 0 0-.316.214.572.572 0 0 0-.106.36l.144.277c.092.055.233.081.42.081.119 0 .25-.029.385-.084l.288-.15.12-.152c.043-.18.14-.575.147-.624l-.052-.092c-.043 0-.376.04-.543.06zM7.011 9.874l-.241.002a.373.373 0 0 0-.352.28l-.223.96c-.035.156.064.283.225.283h.18c.401 0 .712-.082.935-.246a.796.796 0 0 0 .332-.695c.001-.197-.07-.346-.213-.44-.144-.095-.36-.143-.643-.143zm28.66-8.363v21.281c0 .508-.41.919-.919.919H.918A.918.918 0 0 1 0 22.79V1.512C0 1.004.41.593.918.593h33.835c.508 0 .919.411.919.918zm-26.4 8.83c0-.265-.043-.488-.142-.666a1.094 1.094 0 0 0-.403-.435 1.904 1.904 0 0 0-.643-.236 5.22 5.22 0 0 0-.873-.07l-1.543.002a.388.388 0 0 0-.356.282l-1.039 4.524c-.038.153.063.282.223.282h.74a.38.38 0 0 0 .354-.282l.254-1.098a.378.378 0 0 1 .354-.28h.211c.905-.001 1.604-.186 2.107-.556.507-.37.756-.86.756-1.467zm3.844.712a.781.781 0 0 0-.421-.731c-.279-.157-.72-.236-1.322-.236-.297 0-.594.024-.894.07-.222.034-.243.04-.379.07-.28.061-.325.342-.325.342l-.09.372c-.052.238.086.228.142.209.123-.037.192-.074.442-.131.24-.054.492-.095.693-.093.296 0 .522.032.672.095a.34.34 0 0 1 .223.336l-.013.104-.106.066c-.42.026-.723.065-1.09.118-.36.05-.676.138-.938.257a1.45 1.45 0 0 0-.636.502c-.14.213-.211.47-.211.773 0 .285.102.519.3.701.2.179.464.265.78.265.199 0 .354-.015.464-.042l.357-.123.303-.169.279-.184.003.005-.027.119-.002.004v.001c-.03.144.057.264.198.277l.003.002H12.208l.01-.003a.382.382 0 0 0 .318-.277l.539-2.332.028-.19.013-.177zm1.637 4.491l2.946-4.98s.283-.427.02-.423c-.175.002-.887 0-.887 0-.159 0-.364.13-.465.283 0 0-1.058 1.816-1.161 1.999l-.123-.002-.33-1.985c-.036-.156-.199-.29-.402-.29l-.662.002c-.16 0-.258.127-.221.281 0 0 .503 2.863.604 3.536.046.372-.006.438-.006.438l-.655 1.141c-.097.156-.045.282.114.282l.766-.001c.158 0 .367-.125.462-.28zm7.943-5.186c0-.265-.047-.489-.142-.666a1.134 1.134 0 0 0-.406-.437 1.825 1.825 0 0 0-.644-.235 5.149 5.149 0 0 0-.868-.069l-1.546.002a.386.386 0 0 0-.354.28l-1.04 4.527c-.037.154.067.281.224.28l.74-.001a.382.382 0 0 0 .356-.278l.25-1.1a.381.381 0 0 1 .355-.28h.21c.905 0 1.608-.186 2.113-.554.5-.375.752-.863.752-1.47zm3.849.697a.78.78 0 0 0-.423-.73c-.28-.157-.721-.236-1.32-.236-.298 0-.597.023-.895.071-.22.032-.243.04-.38.07-.282.06-.325.341-.325.341l-.09.372c-.05.237.083.226.145.208.122-.036.19-.072.439-.13.238-.054.492-.095.694-.093.294 0 .52.031.67.095.15.064.224.176.224.335l-.011.105-.106.066c-.424.026-.727.065-1.092.118-.358.05-.675.138-.939.258-.28.125-.49.29-.635.502a1.36 1.36 0 0 0-.212.77c0 .288.103.522.303.703.2.177.462.267.778.267.197-.003.353-.015.463-.044l.356-.12.306-.17.276-.185.005.005-.025.119-.003.003.001.001a.215.215 0 0 0 .197.277l.001.004h.688l.01-.004a.381.381 0 0 0 .315-.278l.54-2.33.028-.191.017-.179zm2.35-1.785c.033-.154-.063-.28-.224-.28h-.662c-.136 0-.258.1-.318.224l-.037.058-.033.146-.926 4.208-.03.13.002.002c-.031.138.054.243.185.264l.012.015h.687c.136 0 .261-.102.32-.228l.035-.053.99-4.485-.002-.001zm1.313-.586h-.247v-.206h-.122v.206h-.083v.102h.083v.383l.057.19.168.06.07-.007.074-.014V9.29h-.005l-.046.014-.062.009-.076-.012-.04-.038-.016-.06-.002-.088v-.33h.247v-.101zm1.199.253l-.057-.201-.175-.071-.13.026-.132.09-.077-.087-.125-.03-.12.027-.114.073v-.08h-.119v.72h.119v-.537l.1-.063.1-.024.08.014.041.041.017.069.005.09v.41h.12v-.499l-.003-.035.103-.065.1-.026.08.014.043.042.015.069.008.088v.41h.12v-.465z"/>
</svg>
