<svg xmlns="http://www.w3.org/2000/svg" xmlns:xlink="http://www.w3.org/1999/xlink" width="101" height="30" viewBox="0 0 101 30">
    <defs>
        <rect id="a" width="101" height="29.945" rx="3.401"/>
        <linearGradient id="c" x1="50%" x2="50%" y1="0%" y2="38.913%">
            <stop offset="0%" stop-color="#FBDA09"/>
            <stop offset="100%" stop-color="#FFBC00"/>
        </linearGradient>
        <path id="b" d="M10.484 3.175l6.735 11.886a2.143 2.143 0 0 1-1.864 3.2H1.885a2.143 2.143 0 0 1-1.864-3.2L6.756 3.175a2.143 2.143 0 0 1 3.728 0z"/>
        <linearGradient id="d" x1="0%" x2="69.306%" y1="58.476%" y2="39.083%">
            <stop offset="0%" stop-color="#01E2FF"/>
            <stop offset="100%" stop-color="#01C4FF"/>
        </linearGradient>
        <linearGradient id="f" x1="20.281%" x2="83.82%" y1="20.102%" y2="83.621%">
            <stop offset="0%" stop-color="#28D781"/>
            <stop offset="100%" stop-color="#02F076"/>
        </linearGradient>
        <linearGradient id="g" x1="74.488%" x2="10.108%" y1="17.43%" y2="91.184%">
            <stop offset="0%" stop-color="#F2414E"/>
            <stop offset="100%" stop-color="#E02554"/>
        </linearGradient>
    </defs>
    <g fill="none" fill-rule="evenodd">
        <g>
            <use fill="#000" xlink:href="#a"/>
            <rect width="100.286" height="29.231" x=".357" y=".357" stroke="#A6A6A6" stroke-width=".714" rx="3.401"/>
            <rect width="100.286" height="29.231" x=".357" y=".357" stroke="#8F8F8F" stroke-width=".714" rx="3.401"/>
        </g>
        <g fill="#FFF">
            <path d="M53.523 9.955A2.45 2.45 0 0 1 51.077 7.5a2.45 2.45 0 0 1 2.446-2.455A2.45 2.45 0 0 1 55.968 7.5a2.45 2.45 0 0 1-2.445 2.455zm0-.75c.937 0 1.698-.764 1.698-1.705 0-.941-.76-1.705-1.698-1.705s-1.699.764-1.699 1.705c0 .941.76 1.705 1.699 1.705zM36.95 7.773v1.5h1.97v.545h-2.718V5.25h2.717v.545h-1.97v1.432h1.767v.546H36.95zM41.568 5.795v4.023h-.747V5.795h-1.155V5.25h3.057v.545h-1.155zM48.225 5.795v4.023h-.748V5.795h-1.154V5.25h3.056v.545h-1.154zM44.896 5.25h1v4.568h-1zM57.326 5.25h.136L59.5 8.593V5.25h.747v4.568H59.5l-2.174-3.565v3.565h-.747V5.25h.747zM33.403 7.307h2.046l-.02.648h-2.026z"/>
            <path d="M35.046 5.778l-.468.47c-.292-.3-.707-.464-1.185-.464-.957 0-1.732.777-1.732 1.736 0 .96.775 1.737 1.732 1.737.956 0 1.635-.555 1.634-1.737.001-.073 0-.144-.005-.213h.597v.024c.225 1.655-.899 2.608-2.246 2.596a2.405 2.405 0 0 1-2.4-2.407 2.403 2.403 0 0 1 2.4-2.406c.692 0 1.275.242 1.673.664z"/>
        </g>
        <g fill="#FFF">
            <path d="M73.356 13.432h3.85s2.217.378 2.217 2.934c0 2.555-2.217 2.934-2.217 2.934h-3.85v-5.868zm.747 1.42V18h2.614s1.19 0 1.19-1.574c0-1.575-1.19-1.575-1.19-1.575h-2.614z"/>
            <path d="M73.016 13.432h1.358v9.545h-1.358zM80.216 13.432h1.358v9.545h-1.358zM86.61 22.295c-.375.31-.973.601-1.918.66-2.164.136-2.165-1.846-2.165-1.98 0-.134-.107-1.75 1.615-2.008 1.219-.182 2.073.122 2.467.314v-.28c-.097-.372-.397-1.054-1.297-1.054-1.237 0-1.51.671-1.51.671l-1.132-.671s.633-1.31 2.533-1.31c2.363 0 2.765 1.635 2.765 2.186v4.151h-1.359v-.68zm-.098-2.045s-2.617-.708-2.708.768c-.09 1.476 2.51.767 2.743-.28 0-.332-.035-.488-.035-.488zM90.517 22.615l-2.422-5.774h1.358l1.743 4.155 1.729-4.122h1.358l-3.675 8.762h-1.359l1.268-3.02zM69.975 19.072l-4.296 1.783s.277.985 1.569.992c1.011.005 1.582-.9 1.582-.9l1.09.741s-.88 1.428-2.68 1.428c-2.215 0-3.19-1.943-3.19-3.205 0-1.216.774-3.275 3.052-3.275 2.277 0 2.873 2.436 2.873 2.436zm-1.635-.505s-.54-.825-1.37-.673c-1.753.322-1.532 1.862-1.532 1.862l2.902-1.189zM62.013 13.432h1.437v9.525h-1.437zM59.713 16.843l1.328.012v6.01c0 1.536-.91 3.157-3.054 3.157-2.145 0-2.837-1.907-2.837-1.907l1.22-.515s.372 1.175 1.68 1.175c1.49 0 1.663-1.36 1.663-1.826v-.652s-.515.81-1.795.81c-1.388 0-3.037-1.194-3.037-3.229 0-2.034 1.553-3.198 3.053-3.24 1.201-.035 1.779.8 1.779.8v-.595zm-1.682 5.042c.97 0 1.754-.89 1.754-1.99 0-1.098-.785-1.99-1.754-1.99s-1.754.892-1.754 1.99c0 1.1.785 1.99 1.754 1.99zM51.05 23.114a3.236 3.236 0 0 1-3.233-3.239 3.236 3.236 0 0 1 3.234-3.239 3.236 3.236 0 0 1 3.233 3.239 3.236 3.236 0 0 1-3.233 3.239zm-.02-1.27c1.003 0 1.817-.882 1.817-1.969 0-1.087-.814-1.969-1.817-1.969-1.004 0-1.818.882-1.818 1.969 0 1.087.814 1.969 1.818 1.969zM44.055 23.114a3.236 3.236 0 0 1-3.234-3.239 3.236 3.236 0 0 1 3.234-3.239 3.236 3.236 0 0 1 3.233 3.239 3.236 3.236 0 0 1-3.233 3.239zm-.021-1.27c1.003 0 1.817-.882 1.817-1.969 0-1.087-.814-1.969-1.817-1.969-1.004 0-1.818.882-1.818 1.969 0 1.087.814 1.969 1.818 1.969z"/>
            <g>
                <path d="M35.705 17.663h4.27l-.043 1.355h-4.227z"/>
                <path d="M39.134 14.476l-.977.978c-.61-.624-1.474-.966-2.473-.966a3.617 3.617 0 0 0-3.614 3.62c0 1.999 1.618 3.62 3.614 3.62 1.996 0 3.413-1.156 3.41-3.62.003-.153 0-.3-.01-.445h1.247v.05c.47 3.45-1.877 5.437-4.69 5.411a5.015 5.015 0 0 1-5.008-5.016 5.013 5.013 0 0 1 5.009-5.017c1.446 0 2.661.506 3.492 1.385z"/>
            </g>
        </g>
        <g transform="translate(7.403 5.318)">
            <mask id="e" fill="#fff">
                <use xlink:href="#b"/>
            </mask>
            <use fill="url(#c)" transform="rotate(90 8.62 9.62)" xlink:href="#b"/>
            <path fill="url(#d)" d="M0-.007l9.495 9.473-9.618 9.847z" mask="url(#e)"/>
            <path fill="url(#f)" d="M-1.952-1.957L9.493 9.47l3.403-3.259z" mask="url(#e)"/>
            <path fill="url(#g)" d="M9.495 9.467l5.21 5.27L-.86 20.01z" mask="url(#e)"/>
        </g>
    </g>
</svg>
