<svg xmlns="http://www.w3.org/2000/svg" width="15" height="13" viewBox="0 0 15 13">
    <path fill="#000" fill-rule="evenodd" d="M14.38 12.8H11.2V8.3c0-1.178-.497-1.982-1.59-1.982-.836 0-1.301.543-1.518 1.066-.08.188-.068.45-.068.71V12.8H4.877s.04-7.97 0-8.695h3.148v1.364c.186-.596 1.192-1.448 2.798-1.448 1.991 0 3.556 1.25 3.556 3.944V12.8zM1.692 3.017h-.02C.657 3.017 0 2.352 0 1.51 0 .65.677 0 1.712 0c1.034 0 1.67.65 1.69 1.507 0 .843-.656 1.51-1.71 1.51zM.363 4.105h2.802V12.8H.363V4.105z" opacity=".5"/>
</svg>
