<svg xmlns="http://www.w3.org/2000/svg" width="13" height="11" viewBox="0 0 13 11">
    <path fill="#000" fill-rule="evenodd" d="M13 1.302c-.478.221-.992.37-1.531.437.55-.343.973-.887 1.172-1.536a5.206 5.206 0 0 1-1.694.673A2.613 2.613 0 0 0 9 0C7.528 0 6.334 1.243 6.334 2.777c0 .218.023.429.069.632C4.186 3.293 2.22 2.19.905.507c-.23.411-.36.889-.36 1.397 0 .963.47 1.814 1.186 2.312a2.589 2.589 0 0 1-1.21-.347v.034c0 1.346.92 2.469 2.141 2.723a2.553 2.553 0 0 1-1.205.048c.34 1.103 1.324 1.907 2.492 1.928A5.217 5.217 0 0 1 0 9.753 7.346 7.346 0 0 0 4.088 11c4.907 0 7.589-4.23 7.589-7.9 0-.121-.002-.242-.007-.36.521-.392.974-.88 1.33-1.438" opacity=".5"/>
</svg>
